<?xml version="1.0" encoding="UTF-8" standalone="no"?>
<!-- Created with Inkscape (http://www.inkscape.org/) -->

<svg
   width="210mm"
   height="297mm"
   viewBox="0 0 210 297"
   version="1.1"
   id="svg5"
   inkscape:version="1.1.2 (b8e25be833, 2022-02-05)"
   sodipodi:docname="блок схема.svg"
   inkscape:export-filename="D:\Projects\кафедра\mkins-2022-materials\figs\20_07\блок схема2.png"
   inkscape:export-xdpi="30.02"
   inkscape:export-ydpi="30.02"
   xmlns:inkscape="http://www.inkscape.org/namespaces/inkscape"
   xmlns:sodipodi="http://sodipodi.sourceforge.net/DTD/sodipodi-0.dtd"
   xmlns="http://www.w3.org/2000/svg"
   xmlns:svg="http://www.w3.org/2000/svg">
  <sodipodi:namedview
     id="namedview7"
     pagecolor="#ffffff"
     bordercolor="#666666"
     borderopacity="1.0"
     inkscape:pageshadow="2"
     inkscape:pageopacity="0.0"
     inkscape:pagecheckerboard="0"
     inkscape:document-units="mm"
     showgrid="true"
     inkscape:zoom="0.26173516"
     inkscape:cx="-66.86148"
     inkscape:cy="794.69644"
     inkscape:window-width="1440"
     inkscape:window-height="837"
     inkscape:window-x="1912"
     inkscape:window-y="-8"
     inkscape:window-maximized="1"
     inkscape:current-layer="layer1">
    <inkscape:grid
       type="xygrid"
       id="grid135" />
  </sodipodi:namedview>
  <defs
     id="defs2">
    <marker
       style="overflow:visible"
       id="Arrow1Lstart"
       refX="0.0"
       refY="0.0"
       orient="auto"
       inkscape:stockid="Arrow1Lstart"
       inkscape:isstock="true">
      <path
         transform="scale(0.8) translate(12.5,0)"
         style="fill-rule:evenodd;fill:context-stroke;stroke:context-stroke;stroke-width:1.0pt"
         d="M 0.0,0.0 L 5.0,-5.0 L -12.5,0.0 L 5.0,5.0 L 0.0,0.0 z "
         id="path82841" />
    </marker>
    <marker
       style="overflow:visible;"
       id="Arrow1Lend"
       refX="0.0"
       refY="0.0"
       orient="auto"
       inkscape:stockid="Arrow1Lend"
       inkscape:isstock="true">
      <path
         transform="scale(0.8) rotate(180) translate(12.5,0)"
         style="fill-rule:evenodd;fill:context-stroke;stroke:context-stroke;stroke-width:1.0pt;"
         d="M 0.0,0.0 L 5.0,-5.0 L -12.5,0.0 L 5.0,5.0 L 0.0,0.0 z "
         id="path82844" />
    </marker>
    <marker
       style="overflow:visible"
       id="Arrow1Lstart-3"
       refX="0"
       refY="0"
       orient="auto"
       inkscape:stockid="Arrow1Lstart"
       inkscape:isstock="true">
      <path
         transform="matrix(0.8,0,0,0.8,10,0)"
         style="fill:context-stroke;fill-rule:evenodd;stroke:context-stroke;stroke-width:1pt"
         d="M 0,0 5,-5 -12.5,0 5,5 Z"
         id="path82841-5" />
    </marker>
    <marker
       style="overflow:visible"
       id="Arrow1Lstart-1"
       refX="0"
       refY="0"
       orient="auto"
       inkscape:stockid="Arrow1Lstart"
       inkscape:isstock="true">
      <path
         transform="matrix(0.8,0,0,0.8,10,0)"
         style="fill:context-stroke;fill-rule:evenodd;stroke:context-stroke;stroke-width:1pt"
         d="M 0,0 5,-5 -12.5,0 5,5 Z"
         id="path82841-8" />
    </marker>
    <marker
       style="overflow:visible"
       id="Arrow1Lstart-3-1"
       refX="0"
       refY="0"
       orient="auto"
       inkscape:stockid="Arrow1Lstart"
       inkscape:isstock="true">
      <path
         transform="matrix(0.8,0,0,0.8,10,0)"
         style="fill:context-stroke;fill-rule:evenodd;stroke:context-stroke;stroke-width:1pt"
         d="M 0,0 5,-5 -12.5,0 5,5 Z"
         id="path82841-5-7" />
    </marker>
    <marker
       style="overflow:visible"
       id="Arrow1Lstart-3-1-0"
       refX="0"
       refY="0"
       orient="auto"
       inkscape:stockid="Arrow1Lstart"
       inkscape:isstock="true">
      <path
         transform="matrix(0.8,0,0,0.8,10,0)"
         style="fill:context-stroke;fill-rule:evenodd;stroke:context-stroke;stroke-width:1pt"
         d="M 0,0 5,-5 -12.5,0 5,5 Z"
         id="path82841-5-7-9" />
    </marker>
    <marker
       style="overflow:visible"
       id="Arrow1Lstart-39"
       refX="0"
       refY="0"
       orient="auto"
       inkscape:stockid="Arrow1Lstart"
       inkscape:isstock="true">
      <path
         transform="matrix(0.8,0,0,0.8,10,0)"
         style="fill:context-stroke;fill-rule:evenodd;stroke:context-stroke;stroke-width:1pt"
         d="M 0,0 5,-5 -12.5,0 5,5 Z"
         id="path82841-3" />
    </marker>
    <marker
       style="overflow:visible"
       id="Arrow1Lstart-2"
       refX="0"
       refY="0"
       orient="auto"
       inkscape:stockid="Arrow1Lstart"
       inkscape:isstock="true">
      <path
         transform="matrix(0.8,0,0,0.8,10,0)"
         style="fill:context-stroke;fill-rule:evenodd;stroke:context-stroke;stroke-width:1pt"
         d="M 0,0 5,-5 -12.5,0 5,5 Z"
         id="path82841-81" />
    </marker>
    <marker
       style="overflow:visible"
       id="Arrow1Lstart-7"
       refX="0"
       refY="0"
       orient="auto"
       inkscape:stockid="Arrow1Lstart"
       inkscape:isstock="true">
      <path
         transform="matrix(0.8,0,0,0.8,10,0)"
         style="fill:context-stroke;fill-rule:evenodd;stroke:context-stroke;stroke-width:1pt"
         d="M 0,0 5,-5 -12.5,0 5,5 Z"
         id="path82841-6" />
    </marker>
  </defs>
  <g
     inkscape:label="Слой 1"
     inkscape:groupmode="layer"
     id="layer1">
    <rect
       style="fill:#ffffff;fill-opacity:0;fill-rule:evenodd;stroke:#000000;stroke-width:1;stroke-miterlimit:4;stroke-dasharray:none;stroke-opacity:1"
       id="rect31"
       width="95.25"
       height="38.391232"
       x="-69.320839"
       y="139.93823"
       inkscape:export-filename="D:\Projects\кафедра\mkins-2022-materials\figs\20_07\блок_схема3.png"
       inkscape:export-xdpi="30.02"
       inkscape:export-ydpi="30.02" />
    <rect
       style="fill:#ffffff;fill-opacity:0;stroke:#000000;stroke-width:2.18074;stroke-miterlimit:4;stroke-dasharray:none;stroke-opacity:1"
       id="rect1508"
       width="74.96257"
       height="79.789032"
       x="122.85229"
       y="5.4047804"
       transform="matrix(0.8685845,0.49554109,-0.88501332,0.4655657,0,0)"
       inkscape:export-filename="D:\Projects\кафедра\mkins-2022-materials\figs\20_07\блок_схема3.png"
       inkscape:export-xdpi="30.02"
       inkscape:export-ydpi="30.02" />
    <text
       xml:space="preserve"
       style="font-style:normal;font-weight:normal;font-size:10.5833px;line-height:1.25;font-family:sans-serif;text-align:center;text-anchor:middle;fill:#000000;fill-opacity:1;stroke:none;stroke-width:0.264583"
       x="-22.646152"
       y="149.42799"
       id="text3528"
       inkscape:export-filename="D:\Projects\кафедра\mkins-2022-materials\figs\20_07\блок_схема3.png"
       inkscape:export-xdpi="30.02"
       inkscape:export-ydpi="30.02"><tspan
         sodipodi:role="line"
         id="tspan3526"
         style="text-align:center;text-anchor:middle;stroke-width:0.264583"
         x="-22.646152"
         y="149.42799">Оценка ВС</tspan><tspan
         sodipodi:role="line"
         style="text-align:center;text-anchor:middle;stroke-width:0.264583"
         x="-22.646154"
         y="162.65712"
         id="tspan10774">по наблюдениям</tspan><tspan
         sodipodi:role="line"
         style="text-align:center;text-anchor:middle;stroke-width:0.264583"
         x="-22.646152"
         y="175.88625"
         id="tspan14716">ЛНС</tspan></text>
    <rect
       style="fill:#ffffff;fill-opacity:0;fill-rule:evenodd;stroke:#000000;stroke-width:1;stroke-miterlimit:4;stroke-dasharray:none;stroke-opacity:1"
       id="rect31-2"
       width="95.25"
       height="38.391232"
       x="174.62492"
       y="138.35075"
       inkscape:export-filename="D:\Projects\кафедра\mkins-2022-materials\figs\20_07\блок_схема3.png"
       inkscape:export-xdpi="30.02"
       inkscape:export-ydpi="30.02" />
    <text
       xml:space="preserve"
       style="font-style:normal;font-weight:normal;font-size:10.5833px;line-height:1.25;font-family:sans-serif;text-align:center;text-anchor:middle;fill:#000000;fill-opacity:1;stroke:none;stroke-width:0.264583"
       x="221.29962"
       y="147.84052"
       id="text3528-8"
       inkscape:export-filename="D:\Projects\кафедра\mkins-2022-materials\figs\20_07\блок_схема3.png"
       inkscape:export-xdpi="30.02"
       inkscape:export-ydpi="30.02"><tspan
         sodipodi:role="line"
         id="tspan3526-2"
         style="text-align:center;text-anchor:middle;stroke-width:0.264583"
         x="221.29962"
         y="147.84052">Оценка ВС</tspan><tspan
         sodipodi:role="line"
         style="text-align:center;text-anchor:middle;stroke-width:0.264583"
         x="221.29962"
         y="161.06964"
         id="tspan10774-1">по наблюдениям</tspan><tspan
         sodipodi:role="line"
         style="text-align:center;text-anchor:middle;stroke-width:0.264583"
         x="221.29962"
         y="174.29877"
         id="tspan14716-6">ГНСС</tspan></text>
    <text
       xml:space="preserve"
       style="font-style:normal;font-weight:normal;font-size:10.5833px;line-height:1.25;font-family:sans-serif;text-align:center;text-anchor:middle;fill:#000000;fill-opacity:1;stroke:none;stroke-width:0.264583"
       x="100.91214"
       y="-99.423073"
       id="text26753"
       inkscape:export-filename="D:\Projects\кафедра\mkins-2022-materials\figs\20_07\блок_схема3.png"
       inkscape:export-xdpi="30.02"
       inkscape:export-ydpi="30.02"><tspan
         sodipodi:role="line"
         id="tspan26751"
         style="text-align:center;text-anchor:middle;stroke-width:0.264583"
         x="100.91214"
         y="-99.423073">Начало цикла</tspan><tspan
         sodipodi:role="line"
         style="text-align:center;text-anchor:middle;stroke-width:0.264583"
         x="100.91214"
         y="-86.193947"
         id="tspan58714"> по массиву</tspan><tspan
         sodipodi:role="line"
         style="text-align:center;text-anchor:middle;stroke-width:0.264583"
         x="100.91214"
         y="-72.964821"
         id="tspan27991">всех наблюдений</tspan><tspan
         sodipodi:role="line"
         style="text-align:center;text-anchor:middle;stroke-width:0.264583"
         x="100.91214"
         y="-59.735699"
         id="tspan30459">в единой шкале</tspan><tspan
         sodipodi:role="line"
         style="text-align:center;text-anchor:middle;stroke-width:0.264583"
         x="100.91214"
         y="-46.506577"
         id="tspan32093"> времени</tspan></text>
    <path
       style="fill:none;stroke:#000000;stroke-width:1.1315;stroke-linecap:butt;stroke-linejoin:miter;stroke-miterlimit:4;stroke-dasharray:none;stroke-opacity:1"
       d="M 31.75,-41.80418 V -99.130561 L 44.257576,-110.59591 H 156.82576 l 12.50757,11.465349 v 57.326381 z"
       id="path39352"
       inkscape:export-filename="D:\Projects\кафедра\mkins-2022-materials\figs\20_07\блок_схема3.png"
       inkscape:export-xdpi="30.02"
       inkscape:export-ydpi="30.02" />
    <path
       style="fill:none;stroke:#000000;stroke-width:1.1315;stroke-linecap:butt;stroke-linejoin:miter;stroke-miterlimit:4;stroke-dasharray:none;stroke-opacity:1"
       d="m 32.808334,293.15828 v 57.32638 L 45.31591,361.94994 H 157.8841 l 12.50757,-11.46528 v -57.32638 z"
       id="path39352-4"
       inkscape:export-filename="D:\Projects\кафедра\mkins-2022-materials\figs\20_07\блок_схема3.png"
       inkscape:export-xdpi="30.02"
       inkscape:export-ydpi="30.02" />
    <text
       xml:space="preserve"
       style="font-style:normal;font-weight:normal;font-size:10.5833px;line-height:1.25;font-family:sans-serif;text-align:center;text-anchor:middle;fill:#000000;fill-opacity:1;stroke:none;stroke-width:0.264583"
       x="102.48032"
       y="215.3873"
       id="text41208"
       inkscape:export-filename="D:\Projects\кафедра\mkins-2022-materials\figs\20_07\блок_схема3.png"
       inkscape:export-xdpi="30.02"
       inkscape:export-ydpi="30.02"><tspan
         sodipodi:role="line"
         id="tspan41206"
         style="text-align:center;text-anchor:middle;stroke-width:0.264583"
         x="102.48032"
         y="215.3873">Обновление общего</tspan><tspan
         sodipodi:role="line"
         style="text-align:center;text-anchor:middle;stroke-width:0.264583"
         x="102.48032"
         y="228.61642"
         id="tspan44230"> вектора состояния </tspan><tspan
         sodipodi:role="line"
         style="text-align:center;text-anchor:middle;stroke-width:0.264583"
         x="102.48032"
         y="241.84555"
         id="tspan45198">и матрицы дисперсий</tspan><tspan
         sodipodi:role="line"
         style="text-align:center;text-anchor:middle;stroke-width:0.264583"
         x="104.34067"
         y="255.07468"
         id="tspan45968"> ошибки фильтрации </tspan></text>
    <rect
       style="fill:#ffffff;fill-opacity:0;stroke:#000000;stroke-width:1;stroke-miterlimit:4;stroke-dasharray:none;stroke-opacity:1"
       id="rect52484"
       width="137.58333"
       height="63.5"
       x="31.75"
       y="200.55411"
       inkscape:export-filename="D:\Projects\кафедра\mkins-2022-materials\figs\20_07\блок_схема3.png"
       inkscape:export-xdpi="30.02"
       inkscape:export-ydpi="30.02" />
    <text
       xml:space="preserve"
       style="font-style:normal;font-weight:normal;font-size:10.5833px;line-height:1.25;font-family:sans-serif;text-align:center;text-anchor:middle;fill:#000000;fill-opacity:1;stroke:none;stroke-width:0.264583"
       x="101.87296"
       y="304.80545"
       id="text26753-1"
       inkscape:export-filename="D:\Projects\кафедра\mkins-2022-materials\figs\20_07\блок_схема3.png"
       inkscape:export-xdpi="30.02"
       inkscape:export-ydpi="30.02"><tspan
         sodipodi:role="line"
         id="tspan26751-1"
         style="text-align:center;text-anchor:middle;stroke-width:0.264583"
         x="101.87296"
         y="304.80545">Конец цикла</tspan><tspan
         sodipodi:role="line"
         style="text-align:center;text-anchor:middle;stroke-width:0.264583"
         x="101.87296"
         y="318.03458"
         id="tspan64506">по массиву</tspan><tspan
         sodipodi:role="line"
         style="text-align:center;text-anchor:middle;stroke-width:0.264583"
         x="101.87296"
         y="331.2637"
         id="tspan27991-1">всех наблюдений</tspan><tspan
         sodipodi:role="line"
         style="text-align:center;text-anchor:middle;stroke-width:0.264583"
         x="101.87296"
         y="344.49283"
         id="tspan30459-1">в единой шкале</tspan><tspan
         sodipodi:role="line"
         style="text-align:center;text-anchor:middle;stroke-width:0.264583"
         x="101.87296"
         y="357.72195"
         id="tspan32093-7"> времени</tspan></text>
    <rect
       style="fill:#ffffff;fill-opacity:0;stroke:#000000;stroke-width:0.894427;stroke-miterlimit:4;stroke-dasharray:none;stroke-opacity:1"
       id="rect74056"
       width="137.58333"
       height="42.333332"
       x="31.75"
       y="-10.054165"
       inkscape:export-filename="D:\Projects\кафедра\mkins-2022-materials\figs\20_07\блок_схема3.png"
       inkscape:export-xdpi="30.02"
       inkscape:export-ydpi="30.02" />
    <text
       xml:space="preserve"
       style="font-style:normal;font-weight:normal;font-size:10.5833px;line-height:1.25;font-family:sans-serif;text-align:center;text-anchor:middle;fill:#000000;fill-opacity:1;stroke:none;stroke-width:0.264583"
       x="99.526932"
       y="6.5944638"
       id="text75996"
       inkscape:export-filename="D:\Projects\кафедра\mkins-2022-materials\figs\20_07\блок_схема3.png"
       inkscape:export-xdpi="30.02"
       inkscape:export-ydpi="30.02"><tspan
         sodipodi:role="line"
         style="text-align:center;text-anchor:middle;stroke-width:0.264583"
         x="99.526932"
         y="6.5944638"
         id="tspan76002">Обработка наблюдения</tspan><tspan
         sodipodi:role="line"
         style="text-align:center;text-anchor:middle;stroke-width:0.264583"
         x="99.526932"
         y="19.823587"
         id="tspan76006">из массива</tspan></text>
    <text
       xml:space="preserve"
       style="font-style:normal;font-weight:normal;font-size:10.5833px;line-height:1.25;font-family:sans-serif;fill:#000000;fill-opacity:1;stroke:none;stroke-width:0.264583"
       x="51.534153"
       y="103.81157"
       id="text81330"
       inkscape:export-filename="D:\Projects\кафедра\mkins-2022-materials\figs\20_07\блок_схема3.png"
       inkscape:export-xdpi="30.02"
       inkscape:export-ydpi="30.02"><tspan
         sodipodi:role="line"
         id="tspan81328"
         style="stroke-width:0.264583"
         x="51.534153"
         y="103.81157">Тип наблюдения?</tspan></text>
    <path
       style="fill:none;stroke:#000000;stroke-width:0.78019;stroke-linecap:butt;stroke-linejoin:miter;stroke-miterlimit:4.3;stroke-dasharray:none;stroke-opacity:1;marker-start:url(#Arrow1Lstart)"
       d="M -21.166667,137.58333 V 100.54167 H 31.749999"
       id="path82759"
       inkscape:export-filename="D:\Projects\кафедра\mkins-2022-materials\figs\20_07\блок_схема3.png"
       inkscape:export-xdpi="30.02"
       inkscape:export-ydpi="30.02" />
    <path
       style="fill:none;stroke:#000000;stroke-width:0.780189;stroke-linecap:butt;stroke-linejoin:miter;stroke-miterlimit:4.3;stroke-dasharray:none;stroke-opacity:1;marker-start:url(#Arrow1Lstart-3)"
       d="M 222.25,137.58333 V 100.54167 H 169.33333"
       id="path82759-9"
       inkscape:export-filename="D:\Projects\кафедра\mkins-2022-materials\figs\20_07\блок_схема3.png"
       inkscape:export-xdpi="30.02"
       inkscape:export-ydpi="30.02" />
    <path
       style="fill:none;stroke:#000000;stroke-width:0.930694;stroke-linecap:butt;stroke-linejoin:miter;stroke-miterlimit:4.3;stroke-dasharray:none;stroke-opacity:1;marker-start:url(#Arrow1Lstart-3-1)"
       d="m 169.33333,230.18752 h 52.7114 v -52.91667"
       id="path82759-9-1"
       inkscape:export-filename="D:\Projects\кафедра\mkins-2022-materials\figs\20_07\блок_схема3.png"
       inkscape:export-xdpi="30.02"
       inkscape:export-ydpi="30.02" />
    <path
       style="fill:none;stroke:#000000;stroke-width:0.932504;stroke-linecap:butt;stroke-linejoin:miter;stroke-miterlimit:4.3;stroke-dasharray:none;stroke-opacity:1;marker-start:url(#Arrow1Lstart-3-1-0)"
       d="M 31.75,232.30416 H -21.166657 V 179.38749"
       id="path82759-9-1-1"
       inkscape:export-filename="D:\Projects\кафедра\mkins-2022-materials\figs\20_07\блок_схема3.png"
       inkscape:export-xdpi="30.02"
       inkscape:export-ydpi="30.02" />
    <text
       xml:space="preserve"
       style="font-style:normal;font-weight:normal;font-size:10.5833px;line-height:1.25;font-family:sans-serif;fill:#000000;fill-opacity:1;stroke:none;stroke-width:0.264583"
       x="-9.0360832"
       y="91.742836"
       id="text86477"
       inkscape:export-filename="D:\Projects\кафедра\mkins-2022-materials\figs\20_07\блок_схема3.png"
       inkscape:export-xdpi="30.02"
       inkscape:export-ydpi="30.02"><tspan
         sodipodi:role="line"
         id="tspan86475"
         style="stroke-width:0.264583"
         x="-9.0360832"
         y="91.742836">ЛНС</tspan></text>
    <text
       xml:space="preserve"
       style="font-style:normal;font-weight:normal;font-size:10.5833px;line-height:1.25;font-family:sans-serif;fill:#000000;fill-opacity:1;stroke:none;stroke-width:0.264583"
       x="187.73553"
       y="94.001862"
       id="text88009"
       inkscape:export-filename="D:\Projects\кафедра\mkins-2022-materials\figs\20_07\блок_схема3.png"
       inkscape:export-xdpi="30.02"
       inkscape:export-ydpi="30.02"><tspan
         sodipodi:role="line"
         id="tspan88007"
         style="stroke-width:0.264583"
         x="187.73553"
         y="94.001862">ГНСС</tspan></text>
    <g
       id="g89393"
       inkscape:export-filename="D:\Projects\кафедра\mkins-2022-materials\figs\20_07\блок_схема3.png"
       inkscape:export-xdpi="30.02"
       inkscape:export-ydpi="30.02">
      <path
         style="fill:none;stroke:#000000;stroke-width:1;stroke-linecap:butt;stroke-linejoin:miter;stroke-opacity:1;marker-start:url(#Arrow1Lstart);stroke-miterlimit:4;stroke-dasharray:none"
         d="M 101.86458,62.177083 V 42.333333"
         id="path89194" />
      <path
         style="fill:none;stroke:#000000;stroke-width:1;stroke-linecap:butt;stroke-linejoin:miter;stroke-opacity:1;stroke-miterlimit:4;stroke-dasharray:none"
         d="M 101.86458,42.333333 V 33.072916"
         id="path89309" />
    </g>
    <g
       id="g89393-4"
       transform="translate(-1.144703e-6,-42.333334)"
       inkscape:export-filename="D:\Projects\кафедра\mkins-2022-materials\figs\20_07\блок_схема3.png"
       inkscape:export-xdpi="30.02"
       inkscape:export-ydpi="30.02">
      <path
         style="fill:none;stroke:#000000;stroke-width:1;stroke-linecap:butt;stroke-linejoin:miter;stroke-miterlimit:4;stroke-dasharray:none;stroke-opacity:1;marker-start:url(#Arrow1Lstart-2)"
         d="M 101.86458,62.177083 V 42.333333"
         id="path89194-7" />
      <path
         style="fill:none;stroke:#000000;stroke-width:1;stroke-linecap:butt;stroke-linejoin:miter;stroke-miterlimit:4;stroke-dasharray:none;stroke-opacity:1"
         d="M 101.86458,42.333333 V 33.072916"
         id="path89309-79" />
    </g>
    <g
       id="g89393-1"
       transform="translate(-0.10033602,230.41435)"
       inkscape:export-filename="D:\Projects\кафедра\mkins-2022-materials\figs\20_07\блок_схема3.png"
       inkscape:export-xdpi="30.02"
       inkscape:export-ydpi="30.02">
      <path
         style="fill:none;stroke:#000000;stroke-width:1;stroke-linecap:butt;stroke-linejoin:miter;stroke-miterlimit:4;stroke-dasharray:none;stroke-opacity:1;marker-start:url(#Arrow1Lstart-7)"
         d="M 101.86458,62.177083 V 42.333333"
         id="path89194-1" />
      <path
         style="fill:none;stroke:#000000;stroke-width:1;stroke-linecap:butt;stroke-linejoin:miter;stroke-miterlimit:4;stroke-dasharray:none;stroke-opacity:1"
         d="M 101.86458,42.333333 V 33.072916"
         id="path89309-4" />
    </g>
    <g
       id="g89393-6"
       transform="translate(3.3333333e-6,-74.612528)"
       inkscape:export-filename="D:\Projects\кафедра\mkins-2022-materials\figs\20_07\блок_схема3.png"
       inkscape:export-xdpi="30.02"
       inkscape:export-ydpi="30.02">
      <path
         style="fill:none;stroke:#000000;stroke-width:1;stroke-linecap:butt;stroke-linejoin:miter;stroke-miterlimit:4;stroke-dasharray:none;stroke-opacity:1;marker-start:url(#Arrow1Lstart-1)"
         d="M 101.86458,62.177083 V 42.333333"
         id="path89194-0" />
      <path
         style="fill:none;stroke:#000000;stroke-width:1;stroke-linecap:butt;stroke-linejoin:miter;stroke-miterlimit:4;stroke-dasharray:none;stroke-opacity:1"
         d="M 101.86458,42.333333 V 33.072916"
         id="path89309-0" />
    </g>
  </g>
</svg>
